<svg width="47" height="11" viewBox="0 0 12.435416 2.9104168">
 <g transform="translate(0 -294.09)">
  <rect transform="scale(1,-1)" y="-295.68" width="11.906" height=".26458"/>
  <path transform="matrix(.55599 0 0 .88912 5.5202 32.59)" d="m12.438 295.78-1.4276 0.80062-1.4276 0.80063 0.020459-1.6367 0.020459-1.6367 1.4072 0.83606z"/>
 </g>
</svg>
