<svg width="10" height="10" viewBox="0 0 10 10">
 <g>
  <rect y="0" width="10" height="1"/>
  <rect y="3" width="6" height="1"/>
  <rect y="6" width="7" height="1"/>
  <rect y="9" width="9" height="1"/>
 </g>
</svg>
